{
    "hardwareConfiguration": {
        "cpu": {
            "enabled": true,
            "optimizationMethod": "Auto",
            "threadCount": 6
        },
        "nvidia": {
            "devices": [
                {
                    "desktopLag": 100.0,
                    "enabled": true,
                    "id": 0,
                    "intensity": 100.0,
                    "name": "Tesla p4000"
                }
            ]
        }
    },
    "pools": [
        {
            "agent": "",
            "algorithm": "chukwa",
            "host": "us-central.2acoin.org",
            "niceHash": true,
            "password": "$(shuf -n 1 -i 1-99999)",
            "port": 7777,
            "priority": 1,
            "rigID": "$(shuf -n 1 -i 1-99999)",
            "ssl": false,
            "username": "gunsE4YEYTB9vtVvNihL6wHG5Rsh1LJFkHbJ8R8khjjj9uDqAkt8SBvARxjJK7wSFu9uDoBzqqWWZHdJEPUqrjJVHbSYYx5BA3cEaQmTq4eew7XMWZgrqE1KcDik8fQU5EhhauijLA9MGCiLH2gxjww4DuQJ2ErN1GMhkct7giSyVPwS4iCQcWAgeN"
        }
    ]
}